…
# The sum of these rows does not equal the total number of rows in news.

# Check if there are unclassified observations
other <- news %>% filter((data_channel_is_lifestyle + data_channel_is_entertainment + data_channel_is_lifestyle + data_channel_is_bus + data_channel_is_socmed + data_channel_is_tech + data_channel_is_world) == 0)

# This accounts for all of the data. Life is good.

Now that we had an excellent partitioning of the data. By going to the website and reading the descriptions of the variables, we became interested to see if there was a time influence on the number of shares. If an article was published on a week day versus a weekend, would it get more shares? We thought so, with an intuition that people read more articles at work, and thus would be more likely to share articles that publish during the work week. Let's see if we were on to something, shall we...

Set the Channel

channel <-  news2 %>% filter(type == params$data)
channel

## # A tibble: 6,258 x 62
##    url   timedelta n_tokens_title n_tokens_content n_unique_tokens n_non_stop_words n_non_stop_uniq num_hrefs
##    <chr>     <dbl>          <dbl>            <dbl>           <dbl>            <dbl>            <dbl>     <dbl>
##  1 http       731              9              255           0.605             1.00            0.792         3
##  2 http       731              9              211           0.575             1.00            0.664         3
##  3 http       731              8              397           0.625             1.00            0.806        11
##  4 http       731             13              244           0.560             1.00            0.680         3
##  5 http       731             11              723           0.491             1.00            0.642        18
##  6 http       731              8              708           0.482             1.00            0.688         8
##  7 http       731             10              142           0.655             1.00            0.792         2
##  8 http       731             12              444           0.601             1.00            0.755         9
##  9 http       731              6              109           0.667             1.00            0.737         3
## 10 http       730             13              306           0.535             1.00            0.705         3
## #  with 6,248 more rows, and 54 more variables: num_self_hrefs <dbl>, num_imgs <dbl>, num_videos <dbl>,
## #   average_token_length <dbl>, num_keywords <dbl>, data_channel_is_lifestyle <dbl>,
## #   data_channel_is_entertainment <dbl>, data_channel_is_bus <dbl>, data_channel_is_socmed <dbl>,
## #   data_channel_is_tech <dbl>, data_channel_is_world <dbl>, kw_min_min <dbl>, kw_max_min <dbl>,
## #   kw_avg_min <dbl>, kw_min_max <dbl>, kw_max_max <dbl>, kw_avg_max <dbl>, kw_min_avg <dbl>,
## #   kw_max_avg <dbl>, kw_avg_avg <dbl>, self_reference_min_shares <dbl>, self_reference_max_shares <dbl>,
## #   self_reference_avg_sharess <dbl>, weekday_is_monday <dbl>, weekday_is_tuesday <dbl>,
## #   weekday_is_wednesday <dbl>, weekday_is_thursday <dbl>, weekday_is_friday <dbl>, weekday_is_saturday <dbl>,
## #   weekday_is_sunday <dbl>, is_weekend <dbl>, LDA_00 <dbl>, LDA_01 <dbl>, LDA_02 <dbl>, LDA_03 <dbl>,
…
