Shares analysis
…
# The sum of these rows does not equal the total number of rows in news.

# Check if there are unclassified observations
other <- news %>% filter((data_channel_is_lifestyle + data_channel_is_entertainment + data_channel_is_lifestyle + data_channel_is_bus + data_channel_is_socmed + data_channel_is_tech + data_channel_is_world) == 0)

# This accounts for all of the data. Life is good.

Now that we had an excellent partitioning of the data. By going to the website and reading the descriptions of the variables, we became interested to see if there was a time influence on the number of shares. If an article was published on a week day versus a weekend, would it get more shares? We thought so, with an intuition that people read more articles at work, and thus would be more likely to share articles that publish during the work week. Let's see if we were on to something, shall we...

Set the Channel

channel <-  news2 %>% filter(type == params$data)
channel

## # A tibble: 6,258 x 62
##    url                 timedelta n_tokens_title n_tokens_content n_unique_tokens
##    <chr>                   <dbl>          <dbl>            <dbl>           <dbl>
##  1 http://mashable.co~       731              9              255           0.605
##  2 http://mashable.co~       731              9              211           0.575
##  3 http://mashable.co~       731              8              397           0.625
##  4 http://mashable.co~       731             13              244           0.560
##  5 http://mashable.co~       731             11              723           0.491
##  6 http://mashable.co~       731              8              708           0.482
##  7 http://mashable.co~       731             10              142           0.655
##  8 http://mashable.co~       731             12              444           0.601
##  9 http://mashable.co~       731              6              109           0.667
## 10 http://mashable.co~       730             13              306           0.535
## # ... with 6,248 more rows, and 57 more variables: n_non_stop_words <dbl>,
## #   n_non_stop_unique_tokens <dbl>, num_hrefs <dbl>, num_self_hrefs <dbl>,
## #   num_imgs <dbl>, num_videos <dbl>, average_token_length <dbl>,
## #   num_keywords <dbl>, data_channel_is_lifestyle <dbl>,
## #   data_channel_is_entertainment <dbl>, data_channel_is_bus <dbl>,
## #   data_channel_is_socmed <dbl>, data_channel_is_tech <dbl>,
## #   data_channel_is_world <dbl>, kw_min_min <dbl>, kw_max_min <dbl>, ...
…
